/* XPM */
static char *magick[] = {
/* columns rows colors chars-per-pixel */
"128 128 61 1",
"  c #838383",
". c #848484",
"X c #868686",
"o c Gray53",
"O c #888888",
"+ c #898989",
"@ c Gray54",
"# c Gray55",
"$ c #8d8d8d",
"% c Gray56",
"& c #909090",
"* c Gray57",
"= c #929292",
"- c #939393",
"; c Gray58",
": c #959595",
"> c Gray59",
", c #979797",
"< c #989898",
"1 c Gray60",
"2 c #9a9a9a",
"3 c #9b9b9b",
"4 c Gray61",
"5 c #9d9d9d",
"6 c Gray62",
"7 c #9f9f9f",
"8 c #a0a0a0",
"9 c Gray63",
"0 c #a2a2a2",
"q c Gray64",
"w c #a4a4a4",
"e c #a5a5a5",
"r c Gray65",
"t c #a7a7a7",
"y c Gray66",
"u c #a9a9a9",
"i c #aaaaaa",
"p c Gray67",
"a c #acacac",
"s c Gray68",
"d c #aeaeae",
"f c #afafaf",
"g c Gray69",
"h c #b1b1b1",
"j c #b2b2b2",
"k c Gray70",
"l c #b4b4b4",
"z c Gray71",
"x c #b6b6b6",
"c c #b7b7b7",
"v c Gray72",
"b c #b9b9b9",
"n c Gray73",
"m c #bcbcbc",
"M c Gray74",
"N c Gray75",
"B c #c0c0c0",
"V c Gray76",
"C c #c3c3c3",
"Z c #c5c5c5",
"A c #c6c6c6",
/* pixels */
"wwwwwwywwyyyyyyyywywyyyyyyyayywwwwwwwwyywyyyyyyaaaagagaaaayyyyywwwwwwwwwwwywwwww9999999999999wwwwwwwwwwwwwwwwyww9995555999999999",
"999wwwwwwwywywyywyywwywwwyyyyyywywyywywyywwyyyyyyaagaggaaayyyyyywyyyywyywwwwwwww9999999999999999w9wywwww99wwwwww9955515515555559",
"559999wwwwwwwwwwywwwwwwwwyyyaayyywwaywwwyyyyyyyyyaaaaaagggaaayyyyyyyyyyyyyyywwww9999999999959999999ww999999999ww9955511155111155",
"11559999ww99wwwwwywwwywwwyyyyyyayywyyywwwyyywywyyaaaaaaggaaaaaaayyyyayyyyyyyyywww9w99999999599999999w99999999w9w995511111,,11111",
",1115559999999wwwwwwwwwwwwwyyyyaywwwyyywyyyywyyyyyaaaagaaggaggaaaayaayayyyyywwywwww9999999955599999999955559999999555111,,,,,111",
",,11151555599999wwwww9wwwwwwwyyaywyywwwyyyywyyyyyyaayaaaaggggaaaaaaaayyyyyywywwwwww999955555555555555555555559999551111,=,,,,,,,",
"==,1111115155999999wwwwww9wwwyyyyyyywwyyyyyywyyyyyyyyayaaaagagagaaayyyyayyyyywwwww999995551111155555555555115599555151,,,=======",
"===,,1111111159999wwwwwww9wwwyyyyyyyyyyyyyyyyyyyywywyyyaaagggaaaaayyyyyyayywwwwww99999555111111511115551111111551111111,========",
"%%===,,111111559999w9www999wwyywyyyyyyyyyyyyyyyywwywyyyaaagagaagaaayyyyyyyyywwwww999955555111111111515111,,11111,,111,,,=======%",
"%%%%===,,111115559999999999wwwwwwyyyyyywywwwwwywwwwwwyyyaaaggaaaayayyyyyyywwwwwww99955551111111111111111,==,,,,==,,,,,,=====%%%%",
"%%%%%===,,11111155559555995wwwwwyyyyyyywwwwwwwywywwwwwyyyaaggaaaaaayyyyyywywwwww9999955511111,1111111,1,,===================%%%%",
"%%%%%====,,,,1111115115559599wwwwywyyyyywyyyywwwwwwwwwyyyyyaagggaayayyyyywwwwwwwww995555151111111111,,,=======%%%========%%%@%%%",
"@@%@%%%==,,=,,,11111111155999wwwwwwwwyyyyyywywwwwwwwwwyyyyaaaggagaayayayywwywywwww9999555111,111,,========%%==%%%%%%%=%%%@%@%%@@",
"@@@@%@%%=,,,,,,,,,111111159999wwwwwywwyyyyyyyyywwwwwwwyyayyaaaggaaaaaaayyywwywyw99w999551151,111,====%===%%%%%%%@@@%%%%@%%%%%@@%",
"@oo@@@%%==,,=,,=,,,,,,111159999wwwwwwyyyyaayyyywwywwyyyyyyaaaaaagaaaaaaayyyywyywww999551111111,,===%%%%%=%%%%@%%@@@@@%@%@%%%@@@@",
"@ooooo@%%=======,,,,,,,111159999w99wyyyaaayyayyyywywwwyaaaaaaagaaaaaaayayywyyyywww9995551,,1,,,,=%%@@%o@%%%%%%@@@@@@@%%@%@@%%@%@",
"oooooo@@%%=====,,,,,,==,,115559999wyyyyayyyyyyyyyywwwwyyyaaggaaaaaaaaaayaayyyyywww99951111111,,=%%%%%@o@@@%@%@@@@@@@@@%@@%@%@@@@",
"ooooo @@@%=======,,,,===,155599999wwwyyyyyyyyyyyywyywyyyaaaaaagayaaaaaaayayyyyywww995111111111,==%=%@oo@@@@@@@@@@oo@o%@%%%%@%@@@",
"ooooooo@%%%%====,,,,====,115555999w99wyyyyyyyyyyawwyywwyyaaaagaaayaaagaaaaayyyywww995111,1,,,,===%%ooo oooo@o@@@@oo%%@o%@@@@@%@o",
"ooo@o @@@%%%%===,,,,,,=,111555599999wwwwwwwwwwwwywwyywwyyyaaaaaaaaaaaaaaayayywwwww9951111,,,,====@@@oo ooooooo@o@oo%%@@@@%@%@@%@",
"oo@@ooo@@%%%%===,,,,,1111111155599999ywwwww9wwwwwwwwyywyyaaaaaaayyaaaaagaaayywwww9995511,,,,====%%@@o@o  ooooooo o@@@%@%%%%%%@@@",
"@@o@@@@@@@%%%%==,,1,11111111155595999wwwww9999999wwwyywyyyyyaaaaaayaaaaaaaayyyww999995111,,,,=,==%@@ooooooo  o   @ooooo%@@@%%%@@",
"@@@@@@@@@@@%%====,,1111111111159155999999955599999ywwwwwyyayaayaaaaaayaaaaaawyww9999555111,,,=,,%%%@@o oo o    o ooo oo@@%%@%%%@",
"o@@@@@@@@@@@%=,==,,111111,,11111155599999551559959wwwywwyyayyayayaayaaaaaaaayyyww9w99555111,,===%%@@@ooo  ooo    o@ oo@@@@%@@@@@",
"ooo@o@@@o@@@%=,,,,1111111,,11111155155555551155959w9wwwyywyyayyyyyyayyyaaaayyyaywwwww955511,,===%%@@@o@oo oo  o oo@oooo%@o@@@@@@",
"@o @@@@o@@@%%===,1111111111111111111151515111559999wwwwyywyyyyyyyyyyyyyyaaaaayyyyywwww995111,====@@@@@ooooooooooooo@@o@%@@@@@@@@",
"ooooo@o@o@@%%==,111155111111111111111111111111559999wywyyyyyyyyyyyyyyyyyyyyaayyyyyyyywww9511,,===%@%o@@ooo@ooooooo@o@@@@@@@@%@@@",
"@o@o@o@oo@@%%%==1115515111111,111111111111115555999wwwwyyyyyyyyyyyyyyyyyyyyyayyayayyywyww9511,,=%@@@@%%@o@@@%@o@@@@@@@@%%@@@%%%@",
"@oooooo@o@@@%%==,111551511111,,11,111111111111155999wwwyywyyyyyyyyyyyyyyyyyyyaaaaayyyywww95511,==%%%=%%@@@@@%@o@%@@%@%%%@@@%%%@@",
"oo ooo@o@o@@%%==,11115115115111111155111,11115551599wwwwwyyyywwwywyyayyyyyyyaaaaaaayyayww999111,==%===%@@@@@o%%%@%=@%%%%%%%%%%%@",
"@oooooo@o@@@%%==,11111115111111111115511,,,111111599wwwywyyyyyyyyyyayayyyyaaaaaaaaaayyywww995511,=====%%@%@@@@%%%==%==========%@",
"oo@ooooo@@o@@%%=,11111115551111151155111,,,11,,11959wwwwwwyyyyywwyyyyyaaaaaaaaaaaaaayywwww9995111,,,===%%@@%%%@%%=============%o",
"@@@o@oooooo@@%%===,11111151115555555511111,11,,1159999wwwwwyywwwyyyaayaaaaagaaaaaaaayyywww99995511,,,===%%%=%@%=====,,==,,====%@",
"%ooo@oooo o@@@%%==,11111151515555559555511=,1111159999wwwywyyyyyyyyyaayaaagaaaaaaaayyyyyywww99955111,,==%%@%======,,,,1,,,====%=",
"@@@o@oo@oooo@@%%==,11111111515995599995511111111155999wwwwwwyyyyyyyyayaaaggggaaayayyyyyyywww999551111,===%%%======,,1111,,,====%",
"@@ooooooooo@@%%===,,1111111115999999999515111111155999wwywyywwywyyyyyyyaagggggaayyyyyywywyww999555511,,====%======,11111,1,,==%%",
"%@@@@@@@@o@@%%===,,,1111111155959999999955511151115999wwyyywwwyyywyayaaaggggaaaayyywwywwwwww9955555111,========,=,11111111,====%",
"%@%@@@@@@@%@%%==,,,,111111155599599999999555115111599wwyywwwwywwwwyyyyyaaggaaaaayywwwwww99ww9955151111,,===%==,,1111111111,,====",
"=%%%%%%%%@%%%%==,1111111111555999999999999995555555999wwwwwwwwwyywyyyyaaaaaaaayyyywwwww99999995111111,==,=====,,1111111111,,,===",
"======%%%%%=====,1111111555555999wwwwww99999995599999wwwwww9wwwyywwwyyyyyaaaayyyyywww9999995955511111,,==,===,,,111115111111,,,=",
"=,=====%%%======,111111515599599wwwwwwww9999999559999wwww99wwwwywwwyyyyywwyaayyyyww999999955555111111111,,,,,,,,1111111111111,,,",
",,,,==,=========,1111111559999999wyyyywwyww99999999999www999wwwywwwwwwywwyyyyywyww9995999555551111111111111,,1,,1115555511111,,,",
"11111,,,,1,,,,=,,11,1115555999999wywyyyyywww99999999999999999wwwwwwwywwwyyyyyyyyww9995555555115111111511511111111111555111,11111",
"11111,,1,1,11,,111,,1115559999w9wyywwyyywwwww99999999999999999www9wwywywwwyyywwww99595115111111111111551111111111115555511111111",
"111511,11111111111,,1515559999w9wwyyyyyyyywwwwww9999599999999www99wwwwwwwwywwwww999111111111111111111151151115511115555555111115",
"51111,11111111111111111555999ww9wwwyyyyyyyyyywwww995555599999999999999wwwwwwww99955511,11111111111111155515555111151555551511555",
"1111111111151511151111115599wwwwwwyyyyyyyyyyyyww9995519555999999995999wwwwwww9999551111,1111151111115555555555555555559511515111",
"1111111115515115111111511599wwwwwwyyyyayyyyayyyw999551115559999995999999999999955511111,1111151511111595555999955999955555111115",
"1111111111151111111111559999wwywyyyyyyyaaaayyywww9955555599999995559999999999995511111511111511115111559999999999999999559511115",
"1111111111511111111111999999wwyyyyyyayyyyyywyyywww99999959599955555599999959515515111115551115151515595595959wwwwwww999955111111",
"1111111111555111111115159wwwwyyyyayaaaaaaaayyyyywww999999959999551555555555551111111111155511155555559999999wwwwwwwwww9995555111",
"51111511151551111111511999wwyyyyyaaaaaaaggaaaayyywwww999995999999515551115151111111111=11111155999999999wwwwywwwwwwwwwww99555515",
"91111111111111111111155999wwwyyaygggggaaggggaaaayyywww9995559955955115155111111111111,1111115999999www99wwwwwwyyyyyyywww99995551",
"91515555551515111151999999wwwyaaaaggggggglggggaaayyywww99555555551151551151111,1111,1111,115559999wwwwwwwwwyywyyyyyyywww99999595",
"11151151551515515115999w99wwwyyagagggllgggggggaaayyyyyw999551115111515515511,,111111111111155559w9wwwwwwyyywwywyyyyyyyyw99999999",
"55115511555555551559559w9wwwwyaaaggllglllggggagaaaaayww999555111155555155511111111151151111555999wwwwwwyyyyyywyyyyyayyyyw9999999",
"55551511555551551115155999wwwyayaaggllgggglgaggaagaaywww9995511115555555551151111,1111111111159999wwwwwwyyyyyyyyyyyayaayywwwwww9",
"5555511115515555515155559wwwwyyyggggglgllggggaggaaaaayw99995555515559555555151111,1111,,151159959wwwwwwyyyyyyayaayaaaayayywwwww9",
"9551511115511555511555999wyyaaaaaaggggggglgagggggagayyww99955555115595999955111151111111515999w999wwwyyyyyyaaaaaayaaaaaayyyyww99",
"95555555555555599115595999wyaaaaggggggggggggggggggggayww999999551555999999955111111111111159wwwwwwwwyyywyyayaaaaaaaggaaaayyyww99",
"5551511555555555111559999wwwyaggaagggllggggggggggggaayyww999995555559999999551111,1111151559wwwwwwwwyyyyyyaaaaaaaaaagagaayyywww9",
"w955511555559955511555999wwwyaaayggglgggggggaggglgggaayyww99999w95599999w99951111111111155559wwwwwwwwyyyyyaaaagagaagaggaaayywwww",
"ww95555555559995515555999wwwwyaaaaggggglgggggggggggaaayywwwww9wwww9999999999551111111111555599wwwwwyyyyyyaaaaggggaggaggagaayywww",
"yw995555555599955155559999wwwwyaaaaggglggllgaaagggggaayyyywywwwwyww999www9999551111111111559999wwwwyyyyaaagagggggagagaggggaaywwy",
"ww955551555555555551155999wwwyyyyyaagaglgggagggaagggaayyyywywwyww9999www9999955551111111155999999wwwyaaaagaggggggagagaggagaayyyw",
"yw99951555555599555111599999wwwwyyagagggllgggaaaggggaaaywyyyywywywwwwwwwwww99955515111115559999999wayaaagaggggggggggggggaggaaayy",
"yw99955555555599555111559999wwwyyyyaaagggggaaaagaggaaayyayyyyyyyywwwwwwwwwww999555111111155999999wwyayaaagggggggggggggagllgaayyy",
"yww99955555559995551151559999wwwyyyaglgggggagggaaaaaayyayyyayyyyyywwyywywywww9995551151515999999wwwyyyyaagggggggggggggglgaaaaayy",
"yww999955999999555111155599999wwyyyyagggggaaaaaaaaaayyyyyyaaayyyyywyyyyyyyywww99995555115555999wwwwyyyyaggggglglgglggglgagaaayyy",
"yww999999999999555511155999wwwwyyyyaaggggaaaaaaaaayayayyyyyyyayyywyywyyyayyywww999995555555599wwwwwyyyyaagggggllggggllglggggaaay",
"yww999999999999995555599999wwwyyyyyyaaaggggaaayaayayayyyyyyayayyywwwwyyayyyywwwwww999999995999wwywyyyyaaggggglllllgglgggggaaaaay",
"yywww99999wwwww99955999999wwwyyaayaaaagagaaaayyyyyyyywywyyyyaayyywwwwywyyyyyywwwwwww9999999999wwwwyyyyaagglgllllllllvlllgggaaayy",
"yywwwwwwwwwwwwwww999999wwwwyyyaaaaaaagagaaaaayyyyyywwyyyyyyyyayyywyywwyyyyyyyyywww9w9ww9999999wwwwyyyyagggglllvllllllllggggaggaa",
"ayyywywwwwwwyyyywwww99wwwyyaaaaagagagaaaaagayyywyyywwywyyyyyyyyayyywwwwyyyyyyyywwww99999999999wwwwyyyaaagggllllllllllllggaaggaga",
"gaayyyyyywywyyyyyywwwwwwwwyaaaggaggggaagaaayyywywyyyywyyyyyyyyyaayyywwwyyyyyyyyyywwwwww9w99ww9wwwwyyyaaaglglllvllllllllggagggggg",
"ggaayaayyyyyyyyyyyywywywyyyaaagggggggggaaaaayywwyyywyywyyyyyyyyyyyyywwwwwyyyyyyyyywwwwwwwwwwwwwwwyyyyaggggglvllllllllllggggggggg",
"lgggaaaaaayaayyaayywyyyyyyyaaagggggggggaaaayywwwwyyywywyyyyyyyyyyyyyywyyyyyyyyyyywwwwwwyyywwwwwwwyyyaaaggggllllvllllllllgagggggl",
"lgggggagggaaaaaaaaaaayaaaaagaagggggggaaggaaaayyyyyyyyyyyyyyywyyyyyyyyyyyyyyyyyyyywywwwwyyyyyyyyyyyaaagggggllllvllllllllgggglglgl",
"llllglgggggggaaaagaaaaaaaaaaaggggaagagggaaaayyyyyyyyyyyyyyywywwwyyyyyaaayyyyyyyywywwyyyyyyyyyyyyyyaaaggglllglvlllgllllllggllllll",
"vllllllllgggggggggagaaaaayyaaggggaaggggaggaaaaayyyyyyyyyywywwwywyyyyyayyayyyaayyyywwwwyyywyaayaaayyagggllgllvlvllllggglllllvllll",
"vvvlllvvllllllglllggggaaaaaaaagaaaaggggagaaagaaayaaaywywwwwwwwwywyyyaaaaaayaaaayyywwwwyyyyyaaagaaagggagllllllvvllgglgglllvllvlll",
"lvvvvvvvvvvlllllllggggaaagagaaagaagaaaaggaayayayyyyayyywwwwwwwwwwwyyayaaaaaaaaayywywwwwwyyaaagaggagaggggllvlvvlllgglgllvvllvlvvv",
"vvvmvmvvvvvvlvlvvlllggggggggagaaaaayayaaaaaaayyyayyaaw9yww9wwwwwwwyyaaaaaaaaaaaayyyywwwywyaaggaggggaagggglvvvllllgglllllllvlvvvv",
"vvmBmmmmmmvvvvvvvvvvllgllgggggggaayayaayaaayyyyyaayaawwwwwwwwyywwyyayyayaagaaaaaayyyyyyyyyaagaggggagaggglllvlllgllglvllvvvvvvvvv",
"mvBmBBBBBmmvvvvmmvmvvvllllggggaaaaayygayyaayyyyyyyyyyayyywwwyyyyywyyyaayyaaaaagaaaayyayyyaayaaagagggalggllllllllllllvvvvvvvvmmmm",
"mmBBBBBmBBBmvmvmmmmvvvvvvllggagggagaaaayyyaayyyywyyyyywyywwwywywwyyyyyayyaagaaagaaayyaaaaaaaaaggggagagggglllglllgllllvlvvvvvmmmm",
"mBZBBBBBBBmmvmmmmmmvmvvvvvllggllgggaaayaaayyyyyywwyywwwwwywwwwwwyyyyyyyyyaaaaaggggaaaaaagaaaaalggggagaagggggggggglllllvvvmmvmmmm",
"mBZBZZZBBmBmmmBmmmmmmmmvvvllgggggggggaaayaayyyywwwy9wwwwwyywwwwwwyyyyyyyyaaaaagagagggaaggagaagagggaaagaaagagglgggglllllvvmmvmBBB",
"BZBBZZZBBBmBmBBBBBmBBmmvvvlllllglggaaaayayyayyywwyywwwwyywywywww9wwwyyyyyaaaggggaagggggggggaagaaaggaaaaaaagggggggglllvlvmvmmmBBB",
"ZZBZZZBZBBBBmmmmBBBBBBmmvvvvvllllgggaaaayyyyyyyywwwwww9wwwwywwwww99wwyyyyaaaaaaagggggggggggggggagaaaaayyyaaaaggggaglllvvvvmmmBBB",
"BZZZZZBBBBBBmmmBBBBBBBmmvvvvvvllllggaaayyyywywwwww99wwwwwywywyw9w99wwyyyyaagaaaggggglgllglggggaggaaaayyyyyayaaaaaggglvvvmmmmBmBB",
"BZZZBBBBBBmmmmBBBZBBBBBBmmmvvvlvlgggaayyyyywyywwww99wwwwwwwywww999wwwwyyaaaagggggggglgllllllgggggagayayyyyyyggaagggglvvvmmmBBBBZ",
"ZZZBBBBBBBBBmmBBZBBBBZBmmvvmvvvvllggaayyyywwyw9w9w99wwwwwwwwwww999w9wwyyyyaaagggggggllllllglgggggagaayyyyayyaaaaaaggllvvvvmBBBBZ",
"ZBBBBBBZBmmmmBBBBBZBBBBBBmmmmvvvlgggaayywwwwwwww9999wwwwywwywww995999wyyyyyaaggggggggllglgglgggggaaaayyywyyyyagaaglglvvvvmmBBBBB",
"BBBBBBBBBBmmBBBBZBZBmBmBBBmmvvvllgggaaywwwww9999999999wywyyyww9999999wwwyyyyaaggggagllllllglglggaaaaayyyyyyyyyaaagggllvvvvmBBBBB",
"mmBmBmBBBmmBmBZBBZBBBBBmBBmmvvvlgaaaaaywww999955995999wwwwyywww9599999wwwwyaaagggggggllllggggggggaaaaayyyyyyyyyaggggllllvvmmBmBm",
"mmmBBBBBBmmmBBBZBBZBBmBBmmmvvvllgaayyyywww99959999999999wyyyww999w9wwwwwwyyaaaaggggggllllggggggggaaaaayyyywyywyagagglllvvvvmmmmm",
"vmmmBBBBmmBBBBBBBBZBBBmmmmvvllgggaayyyyy99999w99999999wwwwyyywww99wwywwwwwyyaaaggggllgllllgggggggaaagaaayyyyyaaaggggggllvvvvvvvm",
"vvmmBBmBBBBBBZBBBBBBBmBmmmvvlgggayyywywww99999999999wwwywyyywwwww9wwywwywyyyaaagagggggglgggglggaggaggaaaayyyyaagggggglvvvvvvvmvv",
"mvmmmmmBBZBBBBBBBBmBBBmmvvvllgaayyywwwww999999999999wwywyyyyyywwwwwwwwwwyyyayaagggglglgllglgggggaggaggaaaayaaggaagggglvlvvvvvvvm",
"mmBBBBmBBBZZBBBBmBmmBBmvvvllggayyyywwwww9999999w9wwwwwwwwyyyyywwwwwywwyyyyayaaaggglggggggglglglgggggggaggaaagggggggllllvvvvvvmvv",
"vmmmBmmBBBBBBBBBmmmmmmmvvvllggaywywww99999999ww99wwwwwwwwyywwwwyw9wwwyyyyaayaaaggglllggggllgggglgggggggggagagggglgllllllvvvvvvmm",
"mmBBBBBBBBZBBBBmmmmmmmvvllvlggaywwww9999999999wwwwwywyywwywywywyywwywyyyayyaaagggllllllglggllllggggggggggggggglggllllllvvvvvvmvm",
"mBBBBmBBmBBBBBBmmmmmmmvvvvlggayyywww999599999w99wwwwyywwwwwwwywywyyyyyyyayaaaaaggglllllllgglllllggllgggggggglgggglgllllvvvvvvvmm",
"mBBmmmmmmmmBBBBBBmmmmvvvlllggayyyyw9999999w99w999wwywwywwwwwyywywyyyayyayyyagggglllllllllglllllgllglllllglggglglgllllllllvlvvvmm",
"mBBmmmBvmBmBBBmBBmmvvvlvllggaayywww99999ww9w999wwwwywwwyww9wyywwwyyyayaaaaaaaaglglllllllgllgllllgllllllllgllggggggggggllvllvvvmm",
"BmmmBmmmBBmBBBBBBmmvmvvlllgggayywwww9999w9w99wwwwwwwwww999wwwywwwyyyaaagggaaagaglllllllllglllllllllllllllglgglllgglgglglllvlvvmm",
"mmBmmmmmmmmmmBBBBmvlmvvllggaaaaywww99999999999wwwwwwwwww999wwwwywyyyaaaagggaggggglglvllllgllllllgllllvvllgllllglllglgggllvvvvvvm",
"mmBBvmvmmmmmmmmmmmvvvvvlgggaaayyywww999999999999wwwwwww99999wwyyyyyayaaaggaggggllglgllllllllllllllvllvvvvvllllgggglllglllvlvvvvm",
"vvmvvvvmmmmmmmvvvvvvvvllgggaayyywwww9w999995999999ww999999999wwyywyyaaaaagggggglllllglllllllllllvlllvlvvvvllllllgllggllllvvvvvvm",
"mmvvmmvvmmmmmmvvvvvvvllgggaayyyywww9w9999951559999ww999955999wwwwyyyyyaagggggggggggggggggllllllllllvvlvvvvvllllgglllglllllvvvvvv",
"vvvmvvvmvvvvvvvvvvlvlllggggayyywww999999955555999ww9999999999wwywyyyyyaaaaggaaggggagggggggglllllvvvllvvvvllllllglglllllglllvvvvm",
"vmvvvvvvvvvvvlvlllvllllggaaayyyww9999999959559999999ww999999wwww9yyyyyyyaaaaaagggaaaaglgglglllglllvllvvvvvvllllggglllllgllllvlvv",
"vvmvvvvvvvvvlllllllllggggayyyyyw9999995555519999999www999999w99w9wywyyyyyyyaayaaaaaaaglglgggglllllvvvvvllllgglggggggggggllllvvvv",
"vvvvvvvvvvlllllglgggggaagayyyyw999995999955599999999www99999ww9wwwwwwyyyyyyyyyyyyaaaaaaalglllllllvvlvlllvllgglgggglggggggglllvvv",
"vlllvvlllvllllllgggagaaaywwywwww9999955599999999999wwwww9999w99wy9wwwwwwwwwyywyyyyyyaayaayagglllllvlvlvllvlgggggaggggaggllllllvv",
"vllvlvlvllgllggggaaaaaayywwwyyww999999959999999999wwwwww99999999wwwwwwwwwwwwwwwywyyyyaaaayygglllllvllvvllllgggggagggagaggllgllll",
"vllvllllllglgggaaaayaaaywyyywww999999995999999www9wwwwwww9999999w9ww9wwwwwwywwwwwyyyaagaaaggglgllllvvvllglgggaaagagaaagggggllllg",
"llllllllggggaggyayyaaaaayyyywww9w9999999999wwwwwwwwwwwwwww99999999999wwwwwww9wwwwyyaagagaagggllllllvvllllggggaaaaagaggagggggglgl",
"llllllglggaggaayyyyyyyaayyyywyww9999999999wwwwywyyyyyywww99999999999wwwwwwwwwwwwwyyaaaggaaggglllvllvvvlllggaaaaaaaagaaaaaggggggg",
"gllgggggagaaaaayywyywyyyyyyyyww9999999999wwwwwyyyyyyywywwww999999999wwwwywwwywwwwwyyyyayayaggllllllvvvlllgggaaayaaaayyaaaagggggl",
"gglglggaaaaaayyywwyyyyywayyyyyw999999999wwwyyyyaayaayyyywww99999599wwwwwwwywywwwwwyyyyywaaaagglgvlllllllgggaaaaaayayyyyyaaaggggg",
"ggglgaaaaayyyyyyywwyyyyyaaaaayy9995999999wwyyaaaaaaayayywwww99999999wwwwywwwwwwyywwyywywyaaaggllglllllgggggaaayyyyyywyyyyyaagggg",
"gllgggaayyyywywyywyyyyyyyyaaayyyw99999999wwyyyaaaaaaaaaywwww9995999wwwwywywwwwwyywwwywwywwaagglllgggglgggagaayyyyyywwwyyyyyaaggg",
"gggggaaayyyyyyww99wwyyyayaaaayww999999wwwwyyyaaggggaaayywwww99995999wwwwwywwww9w99wwwwwwwyyaaglgagggggggggaayyyywywwwwwwwyyyaagg",
"gaaaaaayayaayywwwwwwyyyyaayyyyyw9wwwwwwwwwwyyyaaaaaaaaayywwww99w9999wwwwwwwww999999wwwwwwwwwyagaaaaaaaaaaaaayyywwwwwwwwwwyyyyaag",
"ggayaayyyyyyayywwwwwwyyayyayyywy99wwwwwwwwwyyyyaaagaaaayyywwwwwwwywwwwwwywwww99999999999wwwwyyyaayayaaaaaaayyyww9999ww9wwwwyyyaa",
"aayyyyyyyyyyyyyyywywwyyyayayywwyw9wwwwwwwwyyyyyaagagggayayyyywwwyywwwwwwwywww9w9999999999w99wwyayywyyyyyyyyyyywww99999999wwwwwwy"
};
